{
  // DESIGN 1: For tourists who are in Budapest for 1 day ( if ttravelduration = 1 )
  "design_1": {
    "frequency_label": "for 24 hours",

    "basic": {
      "public_transport": [
        { "symbol": "option_3", "value": 1, "price": 1600 }
      ],

      "bike_sharing": [
        { "symbol": "option_0", "value": 0 },
        { "symbol": "option_2", "value": 1, "price": 500 }
      ],

      "budapest_card": [
        { "symbol": "option_0", "value": 0 },
        { "symbol": "option_1", "value": 1, "price": 4400 }
      ],

      "multipliers": [
        0.8, 0.85, 0.88, 0.95, 1, 1.05, 1.12, 1.15, 1.2, 1.25, 1.3
      ],

      "frequency_label": "for 24 hours"
    },

    "easy": {
      "public_transport": [
        { "symbol": "option_3", "value": 1, "price": 1600 }
      ],

      "bike_sharing": [
        { "symbol": "option_2", "value": 1, "price": 500 }
      ],

      "taxi": [
        { "symbol": "option_0", "value": 0 },
        { "symbol": "option_t_1", "value": 1, "price": 3500 },
        { "symbol": "option_t_2", "value": 2, "price": 7000 }
      ],

      "airport_transfer": [
        { "symbol": "option_0", "value": 0 },
        { "symbol": "option_1", "value": 1, "price": 5000 },
        { "symbol": "option_2", "value": 2, "price": 14000 }
      ],

      "hotel_transfer": [
        { "symbol": "option_0", "value": 0 },
        { "symbol": "option_1", "value": 1, "price": 3500 },
        { "symbol": "option_2", "value": 2, "price": 7000 }
      ],

      "budapest_card": [
        { "symbol": "option_0", "value": 0 },
        { "symbol": "option_1", "value": 1, "price": 4400 }
      ],

      "multipliers": [
        0.8, 0.85, 0.88, 0.95, 1, 1.05, 1.12, 1.15, 1.2, 1.25, 1.3
      ],

      "frequency_label": "for 24 hours"
    },

    "roamer": {
      "public_transport": [
        { "symbol": "option_3", "value": 1, "price": 1600 }
      ],

      "bike_sharing": [
        { "symbol": "option_2", "value": 1, "price": 500 }
      ],

      "taxi": [
        { "symbol": "option_0", "value": 0 },
        { "symbol": "option_t_1", "value": 1, "price": 3500 },
        { "symbol": "option_t_2", "value": 2, "price": 7000 },
        { "symbol": "option_t_3", "value": 3, "price": 10500 }
      ],

      "car_sharing": [
        { "symbol": "option_0", "value": 0 },
        { "symbol": "option_1", "value": 1, "price": 3500 },
        { "symbol": "option_2", "value": 3, "price": 10000 }
      ],

      "airport_transfer": [
        { "symbol": "option_0", "value": 0 },
        { "symbol": "option_1", "value": 1, "price": 5000 },
        { "symbol": "option_2", "value": 2, "price": 14000 }
      ],

      "hotel_transfer": [
        { "symbol": "option_0", "value": 0 },
        { "symbol": "option_1", "value": 1, "price": 3500 },
        { "symbol": "option_2", "value": 2, "price": 7000 }
      ],

      "budapest_card": [
        { "symbol": "option_0", "value": 0 },
        { "symbol": "option_1", "value": 1, "price": 4400 }
      ],

      "multipliers": [
        0.8, 0.85, 0.88, 0.95, 1, 1.05, 1.12, 1.15, 1.2, 1.25, 1.3
      ],

      "frequency_label": "for 24 hours"
    }
  },

  // DESIGN 2: For tourists who are in Budapest for 2-4 days day ( if ptravelduration = 2-4 )
  "design_2": {
    "frequency_label": "for 72 hours",

    "basic": {
      "public_transport": [
        { "symbol": "option_3", "value": 1, "price": 4150 }
      ],

      "bike_sharing": [
        { "symbol": "option_0", "value": 0 },
        { "symbol": "option_2", "value": 1, "price": 1000 }
      ],

      "budapest_card": [
        { "symbol": "option_0", "value": 0 },
        { "symbol": "option_2", "value": 1, "price": 7500 }
      ],

      "multipliers": [
        0.8, 0.85, 0.88, 0.95, 1, 1.05, 1.12, 1.15, 1.2, 1.25, 1.3
      ],

      "frequency_label": "for 72 hours"
    },

    "easy": {
      "public_transport": [
        { "symbol": "option_3", "value": 1, "price": 4150 }
      ],

      "bike_sharing": [
        { "symbol": "option_2", "value": 1, "price": 1000 }
      ],

      "taxi": [
        { "symbol": "option_0", "value": 0 },
        { "symbol": "option_t_1", "value": 1, "price": 3500 },
        { "symbol": "option_t_2", "value": 2, "price": 7000 }
      ],

      "airport_transfer": [
        { "symbol": "option_0", "value": 0 },
        { "symbol": "option_1", "value": 1, "price": 5000 },
        { "symbol": "option_2", "value": 2, "price": 14000 }
      ],

      "hotel_transfer": [
        { "symbol": "option_0", "value": 0 },
        { "symbol": "option_1", "value": 1, "price": 3500 },
        { "symbol": "option_2", "value": 2, "price": 7000 }
      ],

      "budapest_card": [
        { "symbol": "option_0", "value": 0 },
        { "symbol": "option_2", "value": 1, "price": 7500 }
      ],

      "multipliers": [
        0.8, 0.85, 0.88, 0.95, 1, 1.05, 1.12, 1.15, 1.2, 1.25, 1.3
      ],

      "frequency_label": "for 72 hours"
    },

    "roamer": {
      "public_transport": [
        { "symbol": "option_3", "value": 1, "price": 4150 }
      ],

      "bike_sharing": [
        { "symbol": "option_2", "value": 1, "price": 1000 }
      ],

      "taxi": [
        { "symbol": "option_0", "value": 0 },
        { "symbol": "option_t_1", "value": 1, "price": 3500 },
        { "symbol": "option_t_2", "value": 2, "price": 7000 },
        { "symbol": "option_t_3", "value": 3, "price": 10500 }
      ],

      "car_sharing": [
        { "symbol": "option_0", "value": 0 },
        { "symbol": "option_1", "value": 1, "price": 3500 },
        { "symbol": "option_2", "value": 3, "price": 10000 },
        { "symbol": "option_3", "value": 5, "price": 15000 },
        { "symbol": "option_8", "value": 8, "price": 28000 }
      ],

      "airport_transfer": [
        { "symbol": "option_0", "value": 0 },
        { "symbol": "option_1", "value": 1, "price": 5000 },
        { "symbol": "option_2", "value": 2, "price": 14000 }
      ],

      "hotel_transfer": [
        { "symbol": "option_0", "value": 0 },
        { "symbol": "option_1", "value": 1, "price": 3500 },
        { "symbol": "option_2", "value": 2, "price": 7000 }
      ],

      "budapest_card": [
        { "symbol": "option_0", "value": 0 },
        { "symbol": "option_2", "value": 1, "price": 7500 }
      ],

      "multipliers": [
        0.8, 0.85, 0.88, 0.95, 1, 1.05, 1.12, 1.15, 1.2, 1.25, 1.3
      ],

      "frequency_label": "for 72 hours"
    }
  },

  // DESIGN 3: For tourists who are in Budapest for 5 or more days ( if ptravelduration = 5+ )
  "design_3": {
    "frequency_label": "for a week",

    "basic": {
      "public_transport": [
        { "symbol": "option_3", "value": 1, "price": 5000 }
      ],

      "bike_sharing": [
        { "symbol": "option_0", "value": 0 },
        { "symbol": "option_2", "value": 1, "price": 2000 }
      ],

      "budapest_card": [
        { "symbol": "option_0", "value": 0 },
        { "symbol": "option_2", "value": 1, "price": 7500 }
      ],

      "multipliers": [
        0.8, 0.85, 0.88, 0.95, 1, 1.05, 1.12, 1.15, 1.2, 1.25, 1.3
      ],

      "frequency_label": "for a week"
    },

    "easy": {
      "public_transport": [
        { "symbol": "option_3", "value": 1, "price": 5000 }
      ],

      "bike_sharing": [
        { "symbol": "option_2", "value": 1, "price": 2000 }
      ],

      "taxi": [
        { "symbol": "option_0", "value": 0 },
        { "symbol": "option_t_1", "value": 1, "price": 3500 },
        { "symbol": "option_t_2", "value": 2, "price": 7000 },
        { "symbol": "option_t_4", "value": 4, "price": 14000 }
      ],

      "airport_transfer": [
        { "symbol": "option_0", "value": 0 },
        { "symbol": "option_1", "value": 1, "price": 5000 },
        { "symbol": "option_2", "value": 2, "price": 14000 }
      ],

      "hotel_transfer": [
        { "symbol": "option_0", "value": 0 },
        { "symbol": "option_1", "value": 1, "price": 3500 },
        { "symbol": "option_2", "value": 2, "price": 7000 }
      ],

      "budapest_card": [
        { "symbol": "option_0", "value": 0 },
        { "symbol": "option_2", "value": 1, "price": 7500 },
        { "symbol": "option_3", "value": 2, "price": 12000 }
      ],

      "multipliers": [
        0.8, 0.85, 0.88, 0.95, 1, 1.05, 1.12, 1.15, 1.2, 1.25, 1.3
      ],

      "frequency_label": "for a week"
    },

    "roamer": {
      "public_transport": [
        { "symbol": "option_3", "value": 1, "price": 5000 }
      ],

      "bike_sharing": [
        { "symbol": "option_2", "value": 1, "price": 2000 }
      ],

      "taxi": [
        { "symbol": "option_0", "value": 0 },
        { "symbol": "option_t_2", "value": 2, "price": 7000 },
        { "symbol": "option_t_4", "value": 4, "price": 14000 },
        { "symbol": "option_t_6", "value": 6, "price": 21000 }
      ],

      "car_sharing": [
        { "symbol": "option_0", "value": 0 },
        { "symbol": "option_1", "value": 1, "price": 3500 },
        { "symbol": "option_3", "value": 3, "price": 10000 },
        { "symbol": "option_5", "value": 5, "price": 15000 },
        { "symbol": "option_8", "value": 8, "price": 28000 },
        { "symbol": "option_12", "value": 12, "price": 42000 },
        { "symbol": "option_16", "value": 16, "price": 48000 }
      ],

      "airport_transfer": [
        { "symbol": "option_0", "value": 0 },
        { "symbol": "option_1", "value": 1, "price": 5000 },
        { "symbol": "option_2", "value": 2, "price": 14000 }
      ],

      "hotel_transfer": [
        { "symbol": "option_0", "value": 0 },
        { "symbol": "option_1", "value": 1, "price": 3500 },
        { "symbol": "option_2", "value": 2, "price": 7000 }
      ],

      "budapest_card": [
        { "symbol": "option_0", "value": 0 },
        { "symbol": "option_2", "value": 1, "price": 7500 },
        { "symbol": "option_3", "value": 2, "price": 12000 }
      ],

      "multipliers": [
        0.8, 0.85, 0.88, 0.95, 1, 1.05, 1.12, 1.15, 1.2, 1.25, 1.3
      ],

      "frequency_label": "for a week"
    }
  }
}